…
``` r

# View(result)
result
#> # A tibble: 43 × 13
#>    result_id cdm_name            group_name group_level strata_name strata_level
#>        <int> <chr>               <chr>      <chr>       <chr>       <chr>       
#>  1         1 An OMOP CDM databa… cohort_na… icu_visits  overall     overall     
#>  2         1 An OMOP CDM databa… cohort_na… icu_visits  overall     overall     
#>  3         1 An OMOP CDM databa… cohort_na… icu_visits  overall     overall     
#>  4         1 An OMOP CDM databa… cohort_na… icu_visits  overall     overall     
#>  5         1 An OMOP CDM databa… cohort_na… icu_visits  overall     overall     
#>  6         1 An OMOP CDM databa… cohort_na… icu_visits  overall     overall     
#>  7         1 An OMOP CDM databa… cohort_na… icu_visits  overall     overall     
#>  8         1 An OMOP CDM databa… cohort_na… icu_visits  overall     overall     
#>  9         1 An OMOP CDM databa… cohort_na… icu_visits  overall     overall     
#> 10         1 An OMOP CDM databa… cohort_na… icu_visits  overall     overall     
#> # ℹ 33 more rows
#> # ℹ 7 more variables: variable_name <chr>, variable_level <chr>,
#> #   estimate_name <chr>, estimate_type <chr>, estimate_value <chr>,
#> #   additional_name <chr>, additional_level <chr>
```
…
